VAR_STR_SCORE = 0
VAR_DEX_SCORE = 1
VAR_CON_SCORE = 2
VAR_INT_SCORE = 3
VAR_WIS_SCORE = 4
VAR_CHA_SCORE = 5
VAR_CURSORPOS = 6
VAR_PC_GENDER = 7
VAR_PC_CLASS = 8
VAR_PC_LEVEL = 9
VAR_PC_TREASURE = 10
VAR_PC_ATTACK = 11
VAR_PC_DAMAGE = 12
VAR_PC_ARMOUR = 13
VAR_PC_PERCEIVE = 14
VAR_PC_STEALTH = 15
VAR_PC_ESCAPE = 16
VAR_PC_FRIGHTEN = 17
VAR_PC_BEFRIEND = 18
VAR_PC_TRICK = 19
VAR_PC_HP = 20
VAR_GOBLINCOMPLETE = 21
VAR_GOBLIN_HP = 22
VAR_EQUIP_ARMOUR = 23
VAR_PC_ARMOUR_TOTAL = 24
VAR_PC_MAXHP = 25
VAR_GOBLINDEAD = 26
VAR_PREVIOUSROOM = 27
VAR_PC_X = 28
VAR_PC_Y = 29
VAR_EQUIP_DAMAGE = 30
VAR_GOBLINACTIVE = 31
VAR_RETURNINGFROMSTARTMENU = 32
VAR_GOBLINSTATE = 33
VAR_PC_DAMAGE_TOTAL = 34
VAR_HOPYES = 35
VAR_MOVENOTRIGGER = 36
VAR_JUMPYES = 37
VAR_R1_NORTH_UNLOCK = 38
VAR_PITFALL = 39
VAR_MIMICACTIVE = 40
PLAYER_SPRITE_TOPDOWN_BANK = 41
PLAYER_SPRITE_TOPDOWN_DATA = 42
VAR_S0T0_THIRD_D6 = 43
VAR_S0T0_SECOND_D6 = 44
VAR_S0T0_FIRST_D6 = 45
VAR_S0T1_FOURTH_D6 = 46
VAR_S0T1_THIRD_D6 = 47
VAR_S0T1_SECOND_D6 = 48
VAR_S0T1_FIRST_D6 = 49
VAR_S0T3_CURRENT_ABILITY = 50
VAR_S0T3_SELECTED_SCORE = 51
VAR_S13_RETURNINGTOSTART = 52
VAR_S13_ROOMNUM = 53
VAR_TEMP_1 = 54
VAR_TEMP_0 = 55
VAR_S13A1_SPOKETOMERCHANT = 56
VAR_S13T0_TIMETOLEAVE = 57
VAR_S14_ROOMNUM = 58
VAR_S14A6_GOBLINWHATDO = 59
VAR_S14A6_GOBLINGIFT = 60
VAR_S14T0_GOBLINWHATDO = 61
VAR_S15A15_MIMICDEAD = 62
VAR_S15A15_MIMICHP = 63
VAR_S15_ROOMNUM = 64
VAR_S15A2_WHATDOMIMIC = 65
VAR_S15A2_HIDFROMMIMIC = 66
VAR_S16_ROOMNUM = 67
VAR_S16T1_JUMPYES = 68
VAR_S17A17_CHESTOPEN = 69
VAR_S17_CAMETHRUDOOR = 70
VAR_S17_ROOMNUM = 71
VAR_S18A18_SIRENDEAD = 72
VAR_S18A18_SIREN_HP = 73
VAR_S18A18_CHESTEXPLODE = 74
VAR_S18A18_CHESTOPEN = 75
VAR_S18_ROOMNUM = 76
VAR_S18A2_SIRENCOMPLETE = 77
VAR_S18A2_SIRENWHATDO = 78
VAR_S18A2_SIRENSTATE = 79
VAR_S18A2_D4 = 80
VAR_S19A19_WORKERSTATUS = 81
VAR_S19_ROOMNUM = 82
VAR_S19A2_TALKEDTOWORKER = 83
VAR_S19A2_WORKERWHATDO = 84
VAR_S20A20_KINGSTATE = 85
VAR_S20A20_KING_HP = 86
VAR_S20_ROOMNUM = 87
VAR_S20A0_KINGWHATDO = 88
VAR_S20A0_KINGFRIENDPROGRESS = 89
VAR_S20A0_KINGFRIGHTPROGRESS = 90
VAR_S20A0_KINGTRICKPROGRESS = 91
VAR_S24_ROOMNUM = 92
VAR_S25A25_CHESTOPEN = 93
VAR_S25_ROOMNUM = 94
VAR_S25T3_GAPCLEARED = 95
VAR_S25T3_HOWTOCROSS = 96
MAX_GLOBAL_VARS = 97
STATE_DEFAULT = 0
STATE_SPECIAL_1 = 1
